 <div style='left:300px;bottom:100px'></div>
<div style='left:600px;bottom:100px; height:80px; width:900px;'></div>
<div style='left:800px;bottom:200px; height:80px; width:700px;'></div>
<div style='left:250px;bottom:290px; height:30px; width:400px;'></div>