 <div style='left:300px;bottom:100px'></div>
 <div style='left:300px;bottom:100px' widht: 70px></div>
 <div style='left:600px;bottom:100px' widht: 90px></div>
<div style='left:1020px;bottom:100px' widht: 800px></div>